<?xml version="1.0" encoding="utf-8"?>
<!DOCTYPE svg PUBLIC "-//W3C//DTD SVG 1.1//EN" "http://www.w3.org/Graphics/SVG/1.1/DTD/svg11.dtd">
<svg version="1.1" id="Layer_1" xmlns="http://www.w3.org/2000/svg" xmlns:xlink="http://www.w3.org/1999/xlink" x="0px" y="0px"
	 width="91.808px" height="64.589px" viewBox="0 0 91.808 64.589" enable-background="new 0 0 91.808 64.589" xml:space="preserve">
<g>
	<defs>
		<rect id="SVGID_1_" width="91.807" height="64.589"/>
	</defs>
	<clipPath id="SVGID_2_">
		<use xlink:href="#SVGID_1_"  overflow="visible"/>
	</clipPath>
	<path clip-path="url(#SVGID_2_)" fill="#003878" d="M56.254,19.208c-0.043-3.887-2.086-7.288-7.298-7.281
		c-8.124,0.016-13.918,8.022-13.887,14.819c0.018,4.286,2.456,7.362,7.296,7.35C50.056,34.096,56.254,26.673,56.254,19.208
		 M42.675,32.996c-2.296-0.004-3.444-1.89-3.429-5.465c0.022-7.379,5.323-14.503,9.669-14.503c2.299,0.007,3.297,2.137,3.309,5.266
		C52.263,24.859,47.545,32.997,42.675,32.996"/>
	<path clip-path="url(#SVGID_2_)" fill="#003878" d="M91.651,14.775c-0.491-1.672-2.611-3.241-6.142-2.894
		c-8.53,0.838-13.946,9.663-12.416,16.65c0.504,2.303,2.122,5.589,7.389,5.589c5.265,0,7.915-3.862,8.065-4.09
		c1.074-1.596,0.827-2.52-0.387-1.077c-0.996,1.183-3.913,4.21-7.118,3.838c-3.111-0.364-4.271-4.096-3.861-7.913
		C89.408,22.774,92.6,18.008,91.651,14.775 M81.265,15.153c1.083-1.217,2.58-2.108,3.757-2.269c4.459-0.614,4.521,8.76-7.734,10.884
		C78.021,19.34,79.859,16.676,81.265,15.153"/>
	<path clip-path="url(#SVGID_2_)" fill="#003878" d="M14.419,0C5.851,0.026,2.979,5.041,2.962,6.335
		c-0.005,0.398,0.011,0.666,0.23,0.45C3.477,6.501,3.995,5.474,5.06,4.551c2.483-2.159,8.67-4.499,15.682-2
		c7.012,2.499,10.766,9.751,8.171,18.106c-2.645,8.512-7.919,10.739-13.016,11.661c-5.063,0.915-10.781,0.441-10.781,0.441
		c-0.01,0-0.016-0.015-0.008-0.023c1.17-1.227,3.532-6.496,6.19-14.163c2.812-8.111,5.258-11.187,7.741-13.298
		c0.837-0.712-1.492-0.292-2.215-0.01c-0.64,0.249-6.109,2.044-9.344,10.578c-3.273,8.63-5.454,14.008-6.517,15.892
		c-1.064,1.884-1.509,2.351,0.058,2.351c1.566,0,0.001-0.001,0.001-0.001c7.999,0,11.779,0.055,14.825-0.135
		c5.938-0.372,17.192-2.657,18.354-15.151C35.327,6.687,23.148-0.026,14.419,0"/>
	<path clip-path="url(#SVGID_2_)" fill="#003878" d="M62.391,29.773c5.199-4.302,8.138-10.393,8.625-13.422
		c0.49-3.028-0.053-4.055,0.285-4.199c0.338-0.143,2.11,1.327,2.001,3.618c-0.048,1.008-0.604,4.645-5.324,10.453
		c-4.788,5.889-8.963,8.284-9.493,7.87c-0.531-0.414,0.406-5.691,0.214-12.055c-0.193-6.363-1.46-7.779-1.843-9.256
		c-0.103-0.398,0.246-0.321,0.246-0.321l0.001,0.002c0.095,0.015,3.648,0.671,4.902,4.135c1.347,3.723,0.659,10.759,0.375,13.167
		C62.38,29.765,62.379,29.778,62.391,29.773"/>
</g>
<g>
	<defs>
		<path id="SVGID_3_" d="M44.882,47.33c-5.862,3.564-9.829,5.23-14.054,5.115l-0.27-0.026c-0.052-0.004-0.197-0.039-0.226,0.021
			c-0.07,0.156,0.609,0.558,0.609,0.558c0.287,0.215,3.401,2.101,7.375,2.67c2.125,0.301,3.615,0.276,4.609,0.075
			c0.91-0.2,0.975-0.087,1.026,0.005c0.06,0.11,0.076,0.36-0.631,0.645c-1.044,0.416-2.011,0.593-3.149,0.757
			c-4.463,0.649-11.008-0.045-13.639-0.637c-0.634-0.144-1.107-0.242-1.319-0.291c-0.051-0.009-0.115-0.019-0.165-0.005
			c-0.047,0.013-0.072,0.053-0.059,0.101c0.026,0.094,0.287,0.261,0.335,0.295c26.398,17.465,32.481,1.272,34.23-1.894
			s2.586-3.878,3.82-4.249c0.206-0.063,0.397-0.088,0.393-0.232c-0.011-0.077-0.185-0.179-0.185-0.179l-0.795-0.543
			c-2.825-2.189-5.424-0.71-7.788,1.825c-2.364,2.536-2.963,2.241-2.4,1.366c2.453-3.619-0.189-5.581-0.189-5.581
			c-0.751-0.674-1.907-1.075-3.249-1.075C47.845,46.051,46.349,46.437,44.882,47.33"/>
	</defs>
	<clipPath id="SVGID_4_">
		<use xlink:href="#SVGID_3_"  overflow="visible"/>
	</clipPath>
	<linearGradient id="SVGID_5_" gradientUnits="userSpaceOnUse" x1="-9.765625e-004" y1="64.4658" x2="0.9995" y2="64.4658" gradientTransform="matrix(38.782 0 0 -38.782 25 2560.196)">
		<stop  offset="0" style="stop-color:#C3922A"/>
		<stop  offset="0.2699" style="stop-color:#E6CC89"/>
		<stop  offset="0.4908" style="stop-color:#FFEBBB"/>
		<stop  offset="0.7485" style="stop-color:#E6CC89"/>
		<stop  offset="1" style="stop-color:#C3922A"/>
	</linearGradient>
	<rect x="24.976" y="46.051" clip-path="url(#SVGID_4_)" fill="url(#SVGID_5_)" width="38.796" height="28.026"/>
</g>
</svg>
